{
	"map": [
		"maps/map1.png",
		"maps/map2.png"
	],
	"texture": "maps/elaine_terrain-32.png",
	"palette": "maps/elaine_palette.png",
	"vertex_shader": {
		"type": "file",
		"data": "shaders/bg_vertex.glsl"
	},
	"fragment_shader": {
		"type": "file",
		"data": "shaders/bg_fragment.glsl"
	},
	"entry_points": [
		[6.5, 1.0]
	]
}
